{
	"tera": {
		"dbConfig": {
			"host": "mongodb://45.55.162.202:27017/tera-dev"
		},
		"redis": {
			"port": 6379,
			"host": "localhost",
			"client": "client",
			"ttl": 6000000
		},
		"cookie": {
			"name": "teradevelopment",
			"age": 6000000,
			"secret": "a3fda9a5c38c21a3da81ec074f15d4f5"
		},
		"braintree": {
			"environment": "Sandbox",
			"merchantId": "9dxzkphqyj7rqz79",
			"publicKey": "44728x7hy3pgs5qd",
			"privateKey": "d313d577bb5ce6f3a32eaef832715743",
			"masterMerchant": "UDonate"
		},
		"mailgun": {
			"apiKey": "key-68497169c0f639959d0c650ae552b2f2",
			"domain": "sandboxd877eae44632421785624a788c96b3f8.mailgun.org"
		}
	}
}
